{
  "access": {
    "token": {
      "issued_at": "2016-03-15T02:11:41.860810",
      "expires": "2016-03-15T03:11:41Z",
      "id": "f8d0b3c400ae4c4ca4b8b37254a31afc",
      "tenant": {
        "description": "",
        "enabled": true,
        "id": "f952aea824e140c493f95a2f8d2a0b7c",
        "name": "demo"
      },
      "audit_ids": [
        "cj5-fGS1SBSpl66pLZH9dA"
      ]
    },
    "serviceCatalog": [
      {
        "endpoints": [
          {
            "adminURL": "http://192.168.2.201:8774/v2.1/f952aea824e140c493f95a2f8d2a0b7c",
            "region": "RegionOne",
            "internalURL": "http://192.168.2.201:8774/v2.1/f952aea824e140c493f95a2f8d2a0b7c",
            "id": "1835fa6f5ff24bb8844457c45ffab896",
            "publicURL": "http://192.168.2.201:8774/v2.1/f952aea824e140c493f95a2f8d2a0b7c"
          }
        ],
        "endpoints_links": [],
        "type": "compute",
        "name": "nova"
      },
      {
        "endpoints": [
          {
            "adminURL": "http://192.168.2.201:8776/v2/f952aea824e140c493f95a2f8d2a0b7c",
            "region": "RegionOne",
            "internalURL": "http://192.168.2.201:8776/v2/f952aea824e140c493f95a2f8d2a0b7c",
            "id": "1c503a8bc38b4080ad854e5c3738dcbc",
            "publicURL": "http://192.168.2.201:8776/v2/f952aea824e140c493f95a2f8d2a0b7c"
          }
        ],
        "endpoints_links": [],
        "type": "volumev2",
        "name": "cinderv2"
      },
      {
        "endpoints": [
          {
            "adminURL": "http://192.168.2.201:9292",
            "region": "RegionOne",
            "internalURL": "http://192.168.2.201:9292",
            "id": "019761a7243649d8bc2ba40c2fe9b2af",
            "publicURL": "http://192.168.2.201:9292"
          }
        ],
        "endpoints_links": [],
        "type": "image",
        "name": "glance"
      },
      {
        "endpoints": [
          {
            "adminURL": "http://192.168.2.201:8774/v2/f952aea824e140c493f95a2f8d2a0b7c",
            "region": "RegionOne",
            "internalURL": "http://192.168.2.201:8774/v2/f952aea824e140c493f95a2f8d2a0b7c",
            "id": "47a24eaaaa354ffb84f1a1c6ee2a4396",
            "publicURL": "http://192.168.2.201:8774/v2/f952aea824e140c493f95a2f8d2a0b7c"
          }
        ],
        "endpoints_links": [],
        "type": "compute_legacy",
        "name": "nova_legacy"
      },
      {
        "endpoints": [
          {
            "adminURL": "http://192.168.2.201:8776/v1/f952aea824e140c493f95a2f8d2a0b7c",
            "region": "RegionOne",
            "internalURL": "http://192.168.2.201:8776/v1/f952aea824e140c493f95a2f8d2a0b7c",
            "id": "4103f57e4ff44118a53e85f53c17bc92",
            "publicURL": "http://192.168.2.201:8776/v1/f952aea824e140c493f95a2f8d2a0b7c"
          }
        ],
        "endpoints_links": [],
        "type": "volume",
        "name": "cinder"
      },
      {
        "endpoints": [
          {
            "adminURL": "http://192.168.2.201:8773/",
            "region": "RegionOne",
            "internalURL": "http://192.168.2.201:8773/",
            "id": "1f94972204d4455981c70f04fa69eebd",
            "publicURL": "http://192.168.2.201:8773/"
          }
        ],
        "endpoints_links": [],
        "type": "ec2",
        "name": "ec2"
      },
      {
        "endpoints": [
          {
            "adminURL": "http://192.168.2.201:35357/v2.0",
            "region": "RegionOne",
            "internalURL": "http://192.168.2.201:5000/v2.0",
            "id": "411f6c94028d402a8d4b500be66d1fac",
            "publicURL": "http://192.168.2.201:5000/v2.0"
          }
        ],
        "endpoints_links": [],
        "type": "identity",
        "name": "keystone"
      }
    ],
    "user": {
      "username": "admin",
      "roles_links": [],
      "id": "8e3565e39e99437f97044ee8550ef92c",
      "roles": [
        {
          "name": "admin"
        }
      ],
      "name": "admin"
    },
    "metadata": {
      "is_admin": 0,
      "roles": [
        "f04f617c921d4a60a63aabb38e89abb7"
      ]
    }
  }
}